<svg width="26" height="30" viewBox="0 0 26 30" fill="none" xmlns="http://www.w3.org/2000/svg">
<path d="M2.55742 1.66625C2.41206 1.66765 2.26803 1.69344 2.13161 1.7425V1.25C2.13161 0.56125 2.70575 0 3.41032 0H22.1651C22.8697 0 23.4439 0.56125 23.4439 1.25V1.66625H2.55742ZM24.7226 4.58375H1.27871C0.574141 4.58375 0 5.145 0 5.83375V28.75C0 29.4387 0.574141 30 1.27871 30H10.6133L12.0173 22.9437H9.153C9.08779 22.9437 2.55742 22.6425 2.55742 22.6425L8.48935 22.2338L8.38961 21.7762L5.86033 21.42L8.26686 21.2225L8.1083 20.6612L4.17627 20.0775C4.17627 20.0775 8.44843 19.6112 8.51365 19.6112H12.6464L12.9623 17.9475C13.3318 15.9275 14.1707 14.4388 15.4852 13.3313C16.8061 12.2162 18.4825 11.6663 20.5195 11.6663C21.3417 11.6663 21.8659 11.855 22.0935 12.245C22.2444 12.4775 22.3506 12.89 22.4503 13.3187C22.5449 13.7587 22.6293 14.1575 22.5718 14.4475C22.4989 14.8787 21.9823 15.0287 21.0412 15.0287H20.7177C19.0208 15.0287 17.9889 15.9825 17.6424 17.9163L17.3316 19.61H19.3008C20.0348 19.61 20.2995 20.1125 20.0962 21.2425C19.8788 22.4187 19.407 22.9425 18.6756 22.9425H16.7089L15.3074 30H24.7213C25.4259 30 26 29.4387 26 28.75V5.83375C26 5.50245 25.8655 5.18469 25.6259 4.95031C25.3864 4.71592 25.0615 4.58408 24.7226 4.58375ZM23.8697 2.91625C23.8693 2.80595 23.8244 2.70027 23.7446 2.62228C23.6648 2.54429 23.5567 2.50033 23.4439 2.5H2.55742C2.44459 2.50033 2.33648 2.54429 2.2567 2.62228C2.17692 2.70027 2.13195 2.80595 2.13161 2.91625V3.75H23.8697V2.91625Z" fill="#FD8134"/>
</svg>
